{
    "version": 2,
    "name": "api-serverless",
    "builds": [
        {
            "src": "index.js",
            "use": "@now/node-server"
        }
    ],
    "routes": [
        {
            "src": "^/(.*)",
            "dest": "/index.js",
            "methods": [
                "GET", "POST"
            ]
        }
    ]
}